Jokes Recommender ver. 1
…
Load the jokes rating data

df <- read_csv(file="../data/jesterfinal151cols.csv.zip",col_names = FALSE)

#Rename columns as per their "Joke ID" and columns to the userid
names(df)     <- c("RATINGS",1:(ncol(df)-1))
row.names(df) <- c(1:nrow(df))

#replace all 99 ratings with NA so we can filter them out
df[,2:ncol(df)][df[,2:ncol(df)]==99]<-NA
df

## # A tibble: 50,692 x 151
##    RATINGS   `1`   `2`   `3`   `4`     `5`   `6`    `7`     `8`   `9`
##  *   <int> <int> <int> <int> <int>   <dbl> <int>  <dbl>   <dbl> <int>
##  1      62    NA    NA    NA    NA  0.219     NA -9.28  -9.28      NA
##  2      34    NA    NA    NA    NA -9.69      NA  9.94   9.53      NA
##  3      18    NA    NA    NA    NA -9.84      NA -9.84  -7.22      NA
##  4      82    NA    NA    NA    NA  6.91      NA  4.75  -5.91      NA
##  5      27    NA    NA    NA    NA -0.0312    NA -9.09  -0.406     NA
##  6      46    NA    NA    NA    NA -2.91      NA -2.34  -0.5       NA
##  7      99    NA    NA    NA    NA  6.22      NA -7.44  -0.812     NA
##  8      15    NA    NA    NA    NA  8.25      NA  9      8.88      NA
##  9     104    NA    NA    NA    NA -5.75      NA  0.281  0.781     NA
## 10      24    NA    NA    NA    NA -7.16      NA -5.91  -0.0938    NA
## # ... with 50,682 more rows, and 141 more variables: `10` <int>,
## #   `11` <int>, `12` <int>, `13` <dbl>, `14` <int>, `15` <dbl>,
## #   `16` <dbl>, `17` <dbl>, `18` <dbl>, `19` <dbl>, `20` <dbl>,
## #   `21` <dbl>, `22` <dbl>, `23` <dbl>, `24` <dbl>, `25` <dbl>,
## #   `26` <dbl>, `27` <dbl>, `28` <dbl>, `29` <dbl>, `30` <dbl>,
## #   `31` <dbl>, `32` <dbl>, `33` <dbl>, `34` <dbl>, `35` <dbl>,
## #   `36` <dbl>, `37` <dbl>, `38` <dbl>, `39` <dbl>, `40` <dbl>,
## #   `41` <dbl>, `42` <dbl>, `43` <dbl>, `44` <dbl>, `45` <dbl>,
## #   `46` <dbl>, `47` <dbl>, `48` <dbl>, `49` <dbl>, `50` <dbl>,
…
for (i in 1:nrow(jokes)) {
  jokes[i,2]<-text2sentiment(jokes[[i,1]])
}

for (i in 1:nrow(jokes)) {
  jokes[i,3]<- median(df[[i+1]],na.rm=TRUE)
}
jokes

## # A tibble: 150 x 3
##    Joke                                                Sentiment AvgRating
##    <chr>                                                   <dbl>     <dbl>
##  1 "A man visits the doctor. The doctor says, \"I hav~    -0.25     NA    
##  2 "This couple had an excellent relationship going u~     0.333    NA    
##  3 Q. What's 200 feet long and has 4 teeth? A. The fr~     0        NA    
##  4 Q. What's the difference between a man and a toile~     0        NA    
##  5 Q. What's O. J. Simpson's web address? A. Slash, s~    -1.8      -2.77 
##  6 "Bill and Hillary Clinton are on a trip back to Ar~     3        NA    
##  7 How many feminists does it take to screw in a ligh~     4        -2.59 
##  8 Q. Did you hear about the dyslexic devil worshiper~     0        -0.375
##  9 "A country guy goes into a city bar that has a dre~     0.4      NA    
## 10 "Two cannibals are eating a clown. One turns to th~     4        NA    
## # ... with 140 more rows
…
